{
  "sections": {
    "1631223345b5c1bff1": {
      "type": "index-section-revolution",
      "blocks": {
        "a77b259a-35b6-4df5-8d52-066146d1993c": {
          "type": "slider_list",
          "settings": {
            "banner_link": "",
            "position": "center",
            "imgpositionvertical": "center",
            "show_video": "yes",
            "video_url": "https:\/\/cdn.shopify.com\/s\/files\/1\/0592\/6643\/3207\/files\/v1_2.mp4?v=1631223830",
            "loopvideo": true,
            "muted_video": true,
            "show_infoblock": "yes",
            "show_item_button": "yes",
            "infoposition": "center",
            "infoposition_v": "center",
            "textaligment": "center",
            "info_point": "351",
            "info_point_v": "-20",
            "textbackground_s": false,
            "textbackground_r": 6,
            "textbackground_c": "#191919",
            "textbackground_a": "80",
            "text1": "",
            "text2": "Astrology Reports",
            "text3": "Get The Latest Reports",
            "button_title": "GET IT",
            "button_link_size": "17",
            "button_link_top": "5",
            "button2": false,
            "banner_link2": "",
            "button_title2": "SHOP NOW!",
            "color_text1": "#ffffff",
            "color_text2": "#ffffff",
            "color_text3": "#ffffff",
            "color_textbase": "#ffffff",
            "color_bgbase": "#2879fe",
            "color_textactive": "#ffffff",
            "color_bgactive": "#2267d8",
            "color_textbase2": "#ffffff",
            "color_bgbase2": "#2879fe",
            "color_textactive2": "#ffffff",
            "color_bgactive2": "#2267d8",
            "btn_custom_styles": "",
            "btn_custom_styles_hover": "",
            "show_customhtml": "no",
            "code": "<img src=\"\/\/cdn.shopify.com\/s\/files\/1\/0130\/5041\/3114\/files\/home1_01.png?v=1530224249\" alt=\"slide1\" data-bgposition=\"center center\" data-bgfit=\"cover\" data-bgrepeat=\"no-repeat\"><div class=\"tp-caption tp-caption1 lfb stb text-center\" data-x=\"center\" data-y=\"center\" data-hoffset=\"0\" data-voffset=\"-20\" data-speed=\"600\" data-start=\"900\" data-easing=\"Power4.easeOut\" data-endeasing=\"Power4.easeIn\">\n<div class=\"tp-caption1-wd-1\">Multipurpose<\/div>\n<div class=\"tp-caption1-wd-2\">Premium<br>Shopify Theme<\/div>\n<div class=\"tp-caption1-wd-3\">30 skins, powerful features, great support, exclusive offer<\/div>\n<div class=\"tp-caption1-wd-4\"><a href=\"#\" class=\"btn btn-xl\" data-text=\"SHOP NOW!\">SHOP NOW!<\/a><\/div>\n<\/div>",
            "show_mask": false,
            "show_mask_color": "#191919",
            "show_mask_alpha": 30
          }
        }
      },
      "block_order": [
        "a77b259a-35b6-4df5-8d52-066146d1993c"
      ],
      "settings": {
        "top_offset": "none",
        "usebanner": "none",
        "fullwidth": true,
        "bg_round_r": 6,
        "img_fullscreen": true,
        "customwidthvalue": "1180",
        "customheightvalue": "650",
        "delay_time": "16000",
        "use_same_desc_width": false,
        "same_width": "330",
        "show_border": false,
        "border_color": "#e9e7e7",
        "bg_round": 6
      }
    },
    "1631223182f661bcd2": {
      "type": "index-section-products",
      "settings": {
        "top_offset": "normal",
        "custom_classes": "",
        "fullwidth": false,
        "nopaddings": false,
        "hideallelementsonindex": false,
        "show_title": true,
        "title_to_left": false,
        "boxed_title": false,
        "text1": "OUR COLLECTIONS",
        "text2": "",
        "text3": "",
        "use_title_as_link": true,
        "show_button": false,
        "button_text": "SHOW ALL",
        "collection": "",
        "items_always_in_center": false,
        "limit": "8",
        "items": "3",
        "default_carousel": false,
        "boxed_buttons": false,
        "show_oneproduct_in_mobile": false,
        "use_adaptive_height": true,
        "toshow": "4",
        "step": "2",
        "module_autoplay": false,
        "delay_time": "7000"
      }
    }
  },
  "order": [
    "1631223345b5c1bff1",
    "1631223182f661bcd2"
  ]
}